{
	"version": 1,
	"changelists": [
		{
			"guid": "00000000000000000000000000000000",
			"description": "Default Uncontrolled Changelist",
			"files": [
				"F:/Unreal Projects/PixelArtPlatformer/Content/GameArt/knight_right_facing.uasset",
				"F:/Unreal Projects/PixelArtPlatformer/Content/GameArt/tiles.uasset",
				"F:/Unreal Projects/PixelArtPlatformer/Content/Levels/Level0.umap",
				"F:/Unreal Projects/PixelArtPlatformer/Content/GameArt/tiles_TileMap.uasset",
				"F:/Unreal Projects/PixelArtPlatformer/Content/GameArt/tiles_TileSet.uasset",
				"F:/Unreal Projects/PixelArtPlatformer/Content/GameArt/knight_right_facing_Sprite.uasset",
				"F:/Unreal Projects/PixelArtPlatformer/Content/GameArt/knight_right_facing_Flipbook.uasset",
				"F:/Unreal Projects/PixelArtPlatformer/Content/Blueprints/BP_Player.uasset",
				"F:/Unreal Projects/PixelArtPlatformer/Content/Blueprints/BP_GameMode.uasset",
				"F:/Unreal Projects/PixelArtPlatformer/Content/Blueprints/BP_PlayerStart.uasset",
				"F:/Unreal Projects/PixelArtPlatformer/Content/Input/IA_PlayerMove.uasset",
				"F:/Unreal Projects/PixelArtPlatformer/Content/Input/IMC_PlayerMappingContext.uasset",
				"F:/Unreal Projects/PixelArtPlatformer/Content/Input/IA_PlayerJump.uasset",
				"F:/Unreal Projects/PixelArtPlatformer/Content/GameArt/key.uasset",
				"F:/Unreal Projects/PixelArtPlatformer/Content/GameArt/key_Sprite.uasset",
				"F:/Unreal Projects/PixelArtPlatformer/Content/Blueprints/BP_Collectible.uasset"
			]
		}
	]
}